[  
   {  
      "siteName":"ANNECY",
      "serviceType":"Site distant BTIP SIP Trunking",
      "calculationDateStart":"2017-10-24",
      "calculationDateEnd":"2018-10-23",
      "numberOfIncidents":0,
      "engagementAchieved":true,
      "msiInMinutes":{  
         "measure":0.0,
         "threshold":240.0
      },
      "siteRelatedProductId":"0033MHF2"
   },
   {  
      "siteName":"BORDEAUX",
      "serviceType":"Site distant BTIP SIP Trunking",
      "calculationDateStart":"2017-09-29",
      "calculationDateEnd":"2018-09-28",
      "numberOfIncidents":0,
      "engagementAchieved":true,
      "msiInMinutes":{  
         "measure":0.0,
         "threshold":240.0
      },
      "siteRelatedProductId":"0022LLV7"
   },
   {  
      "siteName":"CAEN",
      "serviceType":"Site distant BTIP SIP Trunking",
      "calculationDateStart":"2017-08-09",
      "calculationDateEnd":"2018-08-08",
      "numberOfIncidents":0,
      "engagementAchieved":true,
      "msiInMinutes":{  
         "measure":0.0,
         "threshold":240.0
      },
      "siteRelatedProductId":"0022LLT1"
   },
   {  
      "siteName":"CHALON",
      "serviceType":"Site distant BTIP SIP Trunking",
      "calculationDateStart":"2017-08-09",
      "calculationDateEnd":"2018-08-08",
      "numberOfIncidents":0,
      "engagementAchieved":true,
      "msiInMinutes":{  
         "measure":0.0,
         "threshold":240.0
      },
      "siteRelatedProductId":"0032DAA1"
   },
   {  
      "siteName":"CLERMONT FERRAND",
      "serviceType":"Site distant BTIP SIP Trunking",
      "calculationDateStart":"2017-08-09",
      "calculationDateEnd":"2018-08-08",
      "numberOfIncidents":0,
      "engagementAchieved":true,
      "msiInMinutes":{  
         "measure":0.0,
         "threshold":240.0
      },
      "siteRelatedProductId":"0024YHH7"
   },{  
      "siteName":"AJACCIO",
      "serviceType":"Site distant BTIP SIP Trunking",
      "calculationDateStart":"2017-01-09",
      "calculationDateEnd":"2018-01-08",
      "numberOfIncidents":0,
      "engagementAchieved":true,
      "msiInMinutes":{  
         "measure":0.0,
         "threshold":240.0
      },
      "siteRelatedProductId":"0033JYW7"
   },
   {  
      "siteName":"ALBI",
      "serviceType":"Site distant BTIP SIP Trunking",
      "calculationDateStart":"2017-09-29",
      "calculationDateEnd":"2018-09-28",
      "numberOfIncidents":0,
      "engagementAchieved":false,
      "msiInMinutes":{  
         "measure":241.0,
         "threshold":240.0
      },
      "siteRelatedProductId":"0029CZE6"
   },
   {  
      "siteName":"AMIENS",
      "serviceType":"Site distant BTIP SIP Trunking",
      "calculationDateStart":"2017-08-09",
      "calculationDateEnd":"2018-08-08",
      "numberOfIncidents":0,
      "engagementAchieved":false,
      "msiInMinutes":{  
         "measure":246.0,
         "threshold":240.0
      },
      "siteRelatedProductId":"0022LLS3"
   },
   {  
      "siteName":"ANNECY",
      "serviceType":"Site distant BTIP SIP Trunking",
      "calculationDateStart":"2017-08-09",
      "calculationDateEnd":"2018-08-08",
      "numberOfIncidents":0,
      "engagementAchieved":true,
      "msiInMinutes":{  
         "measure":85.0,
         "threshold":240.0
      },
      "siteRelatedProductId":"0022KPG5"
   },
   {  
      "siteName":"ANNECY",
      "serviceType":"Site distant BTIP SIP Trunking",
      "calculationDateStart":"2017-11-15",
      "calculationDateEnd":"2018-11-14",
      "numberOfIncidents":0,
      "engagementAchieved":true,
      "msiInMinutes":{  
         "measure":0.0,
         "threshold":240.0
      },
      "siteRelatedProductId":"0022KPG5"
   },{  
      "siteName":"AJACCIO",
      "serviceType":"Site distant BTIP SIP Trunking",
      "calculationDateStart":"2017-01-09",
      "calculationDateEnd":"2018-01-08",
      "numberOfIncidents":0,
      "engagementAchieved":true,
      "msiInMinutes":{  
         "measure":0.0,
         "threshold":240.0
      },
      "siteRelatedProductId":"0033JYW7"
   },
   {  
      "siteName":"ALBI",
      "serviceType":"Site distant BTIP SIP Trunking",
      "calculationDateStart":"2017-09-29",
      "calculationDateEnd":"2018-09-28",
      "numberOfIncidents":0,
      "engagementAchieved":true,
      "msiInMinutes":{  
         "measure":0.0,
         "threshold":240.0
      },
      "siteRelatedProductId":"0029CZE6"
   },
   {  
      "siteName":"AMIENS",
      "serviceType":"Site distant BTIP SIP Trunking",
      "calculationDateStart":"2017-08-09",
      "calculationDateEnd":"2018-08-08",
      "numberOfIncidents":0,
      "engagementAchieved":true,
      "msiInMinutes":{  
         "measure":0.0,
         "threshold":240.0
      },
      "siteRelatedProductId":"0022LLS3"
   },
   {  
      "siteName":"ANNECY",
      "serviceType":"Site distant BTIP SIP Trunking",
      "calculationDateStart":"2017-08-09",
      "calculationDateEnd":"2018-08-08",
      "numberOfIncidents":0,
      "engagementAchieved":true,
      "msiInMinutes":{  
         "measure":0.0,
         "threshold":240.0
      },
      "siteRelatedProductId":"0022KPG5"
   },
   {  
      "siteName":"ANNECY",
      "serviceType":"Site distant BTIP SIP Trunking",
      "calculationDateStart":"2017-11-15",
      "calculationDateEnd":"2018-11-14",
      "numberOfIncidents":0,
      "engagementAchieved":true,
      "msiInMinutes":{  
         "measure":0.0,
         "threshold":240.0
      },
      "siteRelatedProductId":"0022KPG5"
   },{  
      "siteName":"AJACCIO",
      "serviceType":"Site distant BTIP SIP Trunking",
      "calculationDateStart":"2017-01-09",
      "calculationDateEnd":"2018-01-08",
      "numberOfIncidents":0,
      "engagementAchieved":true,
      "msiInMinutes":{  
         "measure":0.0,
         "threshold":240.0
      },
      "siteRelatedProductId":"0033JYW7"
   },
   {  
      "siteName":"ALBI",
      "serviceType":"Site distant BTIP SIP Trunking",
      "calculationDateStart":"2017-09-29",
      "calculationDateEnd":"2018-09-28",
      "numberOfIncidents":0,
      "engagementAchieved":true,
      "msiInMinutes":{  
         "measure":0.0,
         "threshold":240.0
      },
      "siteRelatedProductId":"0029CZE6"
   },
   {  
      "siteName":"AMIENS",
      "serviceType":"Site distant BTIP SIP Trunking",
      "calculationDateStart":"2017-08-09",
      "calculationDateEnd":"2018-08-08",
      "numberOfIncidents":0,
      "engagementAchieved":true,
      "msiInMinutes":{  
         "measure":0.0,
         "threshold":240.0
      },
      "siteRelatedProductId":"0022LLS3"
   },
   {  
      "siteName":"ANNECY",
      "serviceType":"Site distant BTIP SIP Trunking",
      "calculationDateStart":"2017-08-09",
      "calculationDateEnd":"2018-08-08",
      "numberOfIncidents":0,
      "engagementAchieved":true,
      "msiInMinutes":{  
         "measure":0.0,
         "threshold":240.0
      },
      "siteRelatedProductId":"0022KPG5"
   },
   {  
      "siteName":"ANNECY",
      "serviceType":"Site distant BTIP SIP Trunking",
      "calculationDateStart":"2017-11-15",
      "calculationDateEnd":"2018-11-14",
      "numberOfIncidents":0,
      "engagementAchieved":true,
      "msiInMinutes":{  
         "measure":0.0,
         "threshold":240.0
      },
      "siteRelatedProductId":"0022KPG5"
   }
]