[
    {
      "month": "2019-12",
      "accessRelatedProductId": "0024115314",
      "siteName": "75MONTSOU-MONO_CME",
      "engagementAchieved": false,
      "measure": 99.97,
      "threshold": 100.0
    },
    {
      "month": "2019-12",
      "accessRelatedProductId": "0024115154",
      "siteName": "27VDR-MONO_CME_B",
      "engagementAchieved": false,
      "measure": 99.97,
      "threshold": 100.0
    },
    {
      "month": "2019-12",
      "accessRelatedProductId": "0024164773",
      "siteName": "27VDR-DUAL_CME_A 10G",
      "engagementAchieved": false,
      "measure": 99.97,
      "threshold": 100.0
    },
    {
      "month": "2019-12",
      "accessRelatedProductId": "0024115397",
      "siteName": "27VAL-REUIL-DUAL_CME",
      "engagementAchieved": false,
      "measure": 99.97,
      "threshold": 100.0
    },
    {
      "month": "2019-12",
      "accessRelatedProductId": "0024153782",
      "siteName": "27VDR-MONO_CME_B 10G",
      "engagementAchieved": false,
      "measure": 99.97,
      "threshold": 100.0
    },
    {
      "month": "2019-12",
      "accessRelatedProductId": "0024115207",
      "siteName": "27VDR-MONO_CME_B",
      "engagementAchieved": false,
      "measure": 99.97,
      "threshold": 100.0
    },
    {
      "month": "2019-12",
      "accessRelatedProductId": "0024115277",
      "siteName": "27VDR-MONO_CME_B",
      "engagementAchieved": false,
      "measure": 99.97,
      "threshold": 100.0
    },
    {
      "month": "2019-12",
      "accessRelatedProductId": "0024156834",
      "siteName": "75PARIS-MONTSOU_XS",
      "engagementAchieved": false,
      "measure": 99.97,
      "threshold": 100.0
    },
    {
      "month": "2019-12",
      "accessRelatedProductId": "0024165595",
      "siteName": "75MTS-MONO_CME_A 10G",
      "engagementAchieved": false,
      "measure": 99.97,
      "threshold": 100.0
    },
    {
      "month": "2019-12",
      "accessRelatedProductId": "0024165692",
      "siteName": "75MTS-MONO_CME_A 10G",
      "engagementAchieved": false,
      "measure": 99.97,
      "threshold": 100.0
    },
    {
      "month": "2019-12",
      "accessRelatedProductId": "0024164774",
      "siteName": "27VDR-DUAL_CME_A 10G",
      "engagementAchieved": false,
      "measure": 99.97,
      "threshold": 100.0
    },
    {
      "month": "2019-12",
      "accessRelatedProductId": "0023889161",
      "siteName": "27VAL-REUIL-DUAL_CME",
      "engagementAchieved": false,
      "measure": 99.97,
      "threshold": 100.0
    },
    {
      "month": "2019-12",
      "accessRelatedProductId": "0024110518",
      "siteName": "27VDR-MONO_CME_B",
      "engagementAchieved": false,
      "measure": 99.97,
      "threshold": 100.0
    },
    {
      "month": "2019-12",
      "accessRelatedProductId": "0024115312",
      "siteName": "75MONTSOU-MONO_CME",
      "engagementAchieved": false,
      "measure": 99.97,
      "threshold": 100.0
    },
    {
      "month": "2019-12",
      "accessRelatedProductId": "0024164727",
      "siteName": "27VDR-DUAL_CME_A 10G",
      "engagementAchieved": false,
      "measure": 99.97,
      "threshold": 100.0
    },
    {
      "month": "2019-12",
      "accessRelatedProductId": "0024088025",
      "siteName": "75MONTSOU-MONO_CME",
      "engagementAchieved": false,
      "measure": 99.97,
      "threshold": 100.0
    },
    {
      "month": "2019-12",
      "accessRelatedProductId": "0024164666",
      "siteName": "75MTS-MONO_CME_A 10G",
      "engagementAchieved": false,
      "measure": 99.97,
      "threshold": 100.0
    },
    {
      "month": "2019-12",
      "accessRelatedProductId": "0024154138",
      "siteName": "27VDR-MONO_CME_B 10G",
      "engagementAchieved": false,
      "measure": 99.97,
      "threshold": 100.0
    },
    {
      "month": "2019-12",
      "accessRelatedProductId": "0024153822",
      "siteName": "27VDR-MONO_CME_B 10G",
      "engagementAchieved": false,
      "measure": 99.97,
      "threshold": 100.0
    },
    {
      "month": "2019-12",
      "accessRelatedProductId": "0024115244",
      "siteName": "27VDR-MONO_CME_B",
      "engagementAchieved": false,
      "measure": 99.97,
      "threshold": 100.0
    }
  ]